Shams_analyzing_scripts/Hi_Lo_trigger/analyzing_spectra_of_waveforms/cal_output_31atten_Ch2.csv

"Record Length",20000,"Points",-3.29500000e-008,-6.24999914e-004
"Sample Interval",5.00000000e-012,s,-3.29450000e-008,-6.31249914e-004
"Trigger Point",6590,"Samples",-3.29400000e-008,-6.24999914e-004
"Trigger Time",0.00000000e+000,s,-3.29350000e-008,-6.18749913e-004
"",,,-3.29300000e-008,-6.24999914e-004
"Horizontal Offset",-3.29500000e-008,s,-3.29250000e-008,-6.49999916e-004
,,,-3.29200000e-008,-6.24999914e-004
,,,-3.29150000e-008,-6.37499915e-004
,,,-3.29100000e-008,-6.43749915e-004
,,,-3.29050000e-008,-6.24999914e-004
,,,-3.29000000e-008,-6.31249914e-004
,,,-3.28950000e-008,-6.24999914e-004
,,,-3.28900000e-008,-6.18749913e-004
,,,-3.28850000e-008,-6.18749913e-004
,,,-3.28800000e-008,-6.18749913e-004
,,,-3.28750000e-008,-6.31249914e-004
,,,-3.28700000e-008,-6.37499915e-004
,,,-3.28650000e-008,-6.43749915e-004
,,,-3.28600000e-008,-6.37499915e-004
,,,-3.28550000e-008,-6.24999914e-004
,,,-3.28500000e-008,-6.49999916e-004
,,,-3.28450000e-008,-6.43749915e-004
,,,-3.28400000e-008,-6.37499915e-004
,,,-3.28350000e-008,-6.31249914e-004
,,,-3.28300000e-008,-6.24999914e-004
,,,-3.28250000e-008,-6.37499915e-004
,,,-3.28200000e-008,-6.12499913e-004
,,,-3.28150000e-008,-6.31249914e-004
,,,-3.28100000e-008,-6.06249913e-004
,,,-3.28050000e-008,-5.87499911e-004
,,,-3.28000000e-008,-5.93749912e-004
,,,-3.27950000e-008,-5.87499911e-004
,,,-3.27900000e-008,-5.81249911e-004
,,,-3.27850000e-008,-5.81249911e-004
,,,-3.27800000e-008,-5.68749910e-004
,,,-3.27750000e-008,-5.49999909e-004
,,,-3.27700000e-008,-5.43749908e-004
,,,-3.27650000e-008,-5.31249907e-004
,,,-3.27600000e-008,-5.12499906e-004
,,,-3.27550000e-008,-4.99999905e-004
,,,-3.27500000e-008,-5.06249905e-004
,,,-3.27450000e-008,-5.12499906e-004
,,,-3.27400000e-008,-4.93749905e-004
,,,-3.27350000e-008,-4.99999905e-004
,,,-3.27300000e-008,-4.87499904e-004
,,,-3.27250000e-008,-4.81249904e-004
,,,-3.27200000e-008,-4.74999903e-004
,,,-3.27150000e-008,-4.74999903e-004
,,,-3.27100000e-008,-4.68749903e-004
,,,-3.27050000e-008,-4.56249902e-004
,,,-3.27000000e-008,-4.56249902e-004
,,,-3.26950000e-008,-4.62499902e-004
,,,-3.26900000e-008,-4.68749903e-004
,,,-3.26850000e-008,-4.49999901e-004
,,,-3.26800000e-008,-4.68749903e-004
,,,-3.26750000e-008,-4.68749903e-004
,,,-3.26700000e-008,-4.68749903e-004
,,,-3.26650000e-008,-4.68749903e-004
,,,-3.26600000e-008,-4.87499904e-004
,,,-3.26550000e-008,-4.93749905e-004
,,,-3.26500000e-008,-5.06249905e-004
,,,-3.26450000e-008,-5.12499906e-004
,,,-3.26400000e-008,-5.24999907e-004
,,,-3.26350000e-008,-5.37499908e-004
,,,-3.26300000e-008,-5.31249907e-004
,,,-3.26250000e-008,-5.49999909e-004
,,,-3.26200000e-008,-5.49999909e-004
,,,-3.26150000e-008,-5.62499909e-004
,,,-3.26100000e-008,-5.81249911e-004
,,,-3.26050000e-008,-6.06249913e-004
,,,-3.26000000e-008,-5.99999912e-004
,,,-3.25950000e-008,-6.24999914e-004
,,,-3.25900000e-008,-6.18749913e-004
,,,-3.25850000e-008,-6.37499915e-004
,,,-3.25800000e-008,-6.49999916e-004
,,,-3.25750000e-008,-6.62499917e-004
,,,-3.25700000e-008,-6.74999917e-004
,,,-3.25650000e-008,-6.68749917e-004
,,,-3.25600000e-008,-6.93749919e-004
,,,-3.25550000e-008,-6.81249918e-004
,,,-3.25500000e-008,-6.99999919e-004
,,,-3.25450000e-008,-6.99999919e-004
,,,-3.25400000e-008,-6.93749919e-004
,,,-3.25350000e-008,-7.06249920e-004
,,,-3.25300000e-008,-7.18749920e-004
,,,-3.25250000e-008,-7.18749920e-004
,,,-3.25200000e-008,-7.12499920e-004
,,,-3.25150000e-008,-7.06249920e-004
,,,-3.25100000e-008,-7.18749920e-004
,,,-3.25050000e-008,-7.24999921e-004
,,,-3.25000000e-008,-7.12499920e-004
,,,-3.24950000e-008,-7.18749920e-004
,,,-3.24900000e-008,-7.06249920e-004
,,,-3.24850000e-008,-7.12499920e-004
,,,-3.24800000e-008,-7.06249920e-004
,,,-3.24750000e-008,-7.12499920e-004
,,,-3.24700000e-008,-7.06249920e-004
,,,-3.24650000e-008,-6.99999919e-004
,,,-3.24600000e-008,-6.99999919e-004
,,,-3.24550000e-008,-6.93749919e-004
,,,-3.24500000e-008,-6.93749919e-004
,,,-3.24450000e-008,-6.99999919e-004
,,,-3.24400000e-008,-6.74999917e-004
,,,-3.24350000e-008,-6.87499918e-004
,,,-3.24300000e-008,-6.74999917e-004
,,,-3.24250000e-008,-6.81249918e-004
,,,-3.24200000e-008,-6.62499917e-004
,,,-3.24150000e-008,-6.74999917e-004
,,,-3.24100000e-008,-6.62499917e-004
,,,-3.24050000e-008,-6.56249916e-004
,,,-3.24000000e-008,-6.56249916e-004
,,,-3.23950000e-008,-6.43749915e-004
,,,-3.23900000e-008,-6.49999916e-004
,,,-3.23850000e-008,-6.56249916e-004
,,,-3.23800000e-008,-6.37499915e-004
,,,-3.23750000e-008,-6.43749915e-004
,,,-3.23700000e-008,-6.49999916e-004
,,,-3.23650000e-008,-6.31249914e-004
,,,-3.23600000e-008,-6.24999914e-004
,,,-3.23550000e-008,-6.24999914e-004
,,,-3.23500000e-008,-6.18749913e-004
,,,-3.23450000e-008,-6.37499915e-004
,,,-3.23400000e-008,-6.18749913e-004
,,,-3.23350000e-008,-6.06249913e-004
,,,-3.23300000e-008,-6.06249913e-004
,,,-3.23250000e-008,-6.06249913e-004
,,,-3.23200000e-008,-6.18749913e-004
,,,-3.23150000e-008,-6.06249913e-004
,,,-3.23100000e-008,-6.12499913e-004
,,,-3.23050000e-008,-5.99999912e-004
,,,-3.23000000e-008,-6.18749913e-004
,,,-3.22950000e-008,-6.18749913e-004
,,,-3.22900000e-008,-6.12499913e-004
,,,-3.22850000e-008,-6.06249913e-004
,,,-3.22800000e-008,-5.99999912e-004
,,,-3.22750000e-008,-6.06249913e-004
,,,-3.22700000e-008,-5.99999912e-004
,,,-3.22650000e-008,-5.99999912e-004
,,,-3.22600000e-008,-6.12499913e-004
,,,-3.22550000e-008,-6.06249913e-004
,,,-3.22500000e-008,-5.87499911e-004
,,,-3.22450000e-008,-5.93749912e-004
,,,-3.22400000e-008,-5.93749912e-004
,,,-3.22350000e-008,-5.99999912e-004
,,,-3.22300000e-008,-5.93749912e-004
,,,-3.22250000e-008,-5.93749912e-004
,,,-3.22200000e-008,-5.99999912e-004
,,,-3.22150000e-008,-5.81249911e-004
,,,-3.22100000e-008,-5.87499911e-004
,,,-3.22050000e-008,-5.87499911e-004
,,,-3.22000000e-008,-5.74999910e-004
,,,-3.21950000e-008,-5.56249909e-004
,,,-3.21900000e-008,-5.68749910e-004
,,,-3.21850000e-008,-5.74999910e-004
,,,-3.21800000e-008,-5.74999910e-004
,,,-3.21750000e-008,-5.62499909e-004
,,,-3.21700000e-008,-5.74999910e-004
,,,-3.21650000e-008,-5.87499911e-004
,,,-3.21600000e-008,-5.87499911e-004
,,,-3.21550000e-008,-5.81249911e-004
,,,-3.21500000e-008,-5.74999910e-004
,,,-3.21450000e-008,-5.81249911e-004
,,,-3.21400000e-008,-5.93749912e-004
,,,-3.21350000e-008,-5.99999912e-004
,,,-3.21300000e-008,-5.81249911e-004
,,,-3.21250000e-008,-5.99999912e-004
,,,-3.21200000e-008,-5.93749912e-004
,,,-3.21150000e-008,-5.99999912e-004
,,,-3.21100000e-008,-6.12499913e-004
,,,-3.21050000e-008,-6.18749913e-004
,,,-3.21000000e-008,-6.12499913e-004
,,,-3.20950000e-008,-6.06249913e-004
,,,-3.20900000e-008,-6.12499913e-004
,,,-3.20850000e-008,-6.24999914e-004
,,,-3.20800000e-008,-6.24999914e-004
,,,-3.20750000e-008,-6.12499913e-004
,,,-3.20700000e-008,-6.12499913e-004
,,,-3.20650000e-008,-6.37499915e-004
,,,-3.20600000e-008,-6.49999916e-004
,,,-3.20550000e-008,-6.24999914e-004
,,,-3.20500000e-008,-6.43749915e-004
,,,-3.20450000e-008,-6.49999916e-004
,,,-3.20400000e-008,-6.43749915e-004
,,,-3.20350000e-008,-6.37499915e-004
,,,-3.20300000e-008,-6.62499917e-004
,,,-3.20250000e-008,-6.49999916e-004
,,,-3.20200000e-008,-6.49999916e-004
,,,-3.20150000e-008,-6.43749915e-004
,,,-3.20100000e-008,-6.49999916e-004
,,,-3.20050000e-008,-6.49999916e-004
,,,-3.20000000e-008,-6.43749915e-004
,,,-3.19950000e-008,-6.49999916e-004
,,,-3.19900000e-008,-6.43749915e-004
,,,-3.19850000e-008,-6.24999914e-004
,,,-3.19800000e-008,-6.12499913e-004
,,,-3.19750000e-008,-6.18749913e-004
,,,-3.19700000e-008,-6.18749913e-004
,,,-3.19650000e-008,-6.12499913e-004
,,,-3.19600000e-008,-6.18749913e-004
,,,-3.19550000e-008,-6.06249913e-004
,,,-3.19500000e-008,-6.06249913e-004
,,,-3.19450000e-008,-6.12499913e-004
,,,-3.19400000e-008,-6.06249913e-004
,,,-3.19350000e-008,-6.06249913e-004
,,,-3.19300000e-008,-5.93749912e-004
,,,-3.19250000e-008,-5.93749912e-004
,,,-3.19200000e-008,-5.87499911e-004
,,,-3.19150000e-008,-6.06249913e-004
,,,-3.19100000e-008,-5.99999912e-004
,,,-3.19050000e-008,-5.99999912e-004
,,,-3.19000000e-008,-6.06249913e-004
,,,-3.18950000e-008,-5.81249911e-004
,,,-3.18900000e-008,-5.74999910e-004
,,,-3.18850000e-008,-5.99999912e-004
,,,-3.18800000e-008,-5.74999910e-004
,,,-3.18750000e-008,-5.62499909e-004
,,,-3.18700000e-008,-5.99999912e-004
,,,-3.18650000e-008,-5.87499911e-004
,,,-3.18600000e-008,-5.56249909e-004
,,,-3.18550000e-008,-5.56249909e-004
,,,-3.18500000e-008,-5.74999910e-004
,,,-3.18450000e-008,-5.68749910e-004
,,,-3.18400000e-008,-5.62499909e-004
,,,-3.18350000e-008,-5.62499909e-004
,,,-3.18300000e-008,-5.49999909e-004
,,,-3.18250000e-008,-5.43749908e-004
,,,-3.18200000e-008,-5.56249909e-004
,,,-3.18150000e-008,-5.49999909e-004
,,,-3.18100000e-008,-5.37499908e-004
,,,-3.18050000e-008,-5.43749908e-004
,,,-3.18000000e-008,-5.24999907e-004
,,,-3.17950000e-008,-5.37499908e-004
,,,-3.17900000e-008,-5.37499908e-004
,,,-3.17850000e-008,-5.24999907e-004
,,,-3.17800000e-008,-5.43749908e-004
,,,-3.17750000e-008,-5.43749908e-004
,,,-3.17700000e-008,-5.31249907e-004
,,,-3.17650000e-008,-5.56249909e-004
,,,-3.17600000e-008,-5.37499908e-004
,,,-3.17550000e-008,-5.43749908e-004
,,,-3.17500000e-008,-5.49999909e-004
,,,-3.17450000e-008,-5.68749910e-004
,,,-3.17400000e-008,-5.62499909e-004
,,,-3.17350000e-008,-5.68749910e-004
,,,-3.17300000e-008,-5.81249911e-004
,,,-3.17250000e-008,-5.93749912e-004
,,,-3.17200000e-008,-5.99999912e-004
,,,-3.17150000e-008,-6.12499913e-004
,,,-3.17100000e-008,-6.06249913e-004
,,,-3.17050000e-008,-6.24999914e-004
,,,-3.17000000e-008,-6.31249914e-004
,,,-3.16950000e-008,-6.37499915e-004
,,,-3.16900000e-008,-6.43749915e-004
,,,-3.16850000e-008,-6.37499915e-004
,,,-3.16800000e-008,-6.56249916e-004
,,,-3.16750000e-008,-6.62499917e-004
,,,-3.16700000e-008,-6.62499917e-004
,,,-3.16650000e-008,-6.68749917e-004
,,,-3.16600000e-008,-6.62499917e-004
,,,-3.16550000e-008,-6.56249916e-004
,,,-3.16500000e-008,-6.74999917e-004
,,,-3.16450000e-008,-6.56249916e-004
,,,-3.16400000e-008,-6.62499917e-004
,,,-3.16350000e-008,-6.49999916e-004
,,,-3.16300000e-008,-6.31249914e-004
,,,-3.16250000e-008,-6.49999916e-004
,,,-3.16200000e-008,-6.56249916e-004
,,,-3.16150000e-008,-6.37499915e-004
,,,-3.16100000e-008,-6.24999914e-004
,,,-3.16050000e-008,-6.06249913e-004
,,,-3.16000000e-008,-6.12499913e-004
,,,-3.15950000e-008,-6.06249913e-004
,,,-3.15900000e-008,-5.87499911e-004
,,,-3.15850000e-008,-5.81249911e-004
,,,-3.15800000e-008,-5.74999910e-004
,,,-3.15750000e-008,-5.68749910e-004
,,,-3.15700000e-008,-5.81249911e-004
,,,-3.15650000e-008,-5.62499909e-004
,,,-3.15600000e-008,-5.62499909e-004
,,,-3.15550000e-008,-5.56249909e-004
,,,-3.15500000e-008,-5.62499909e-004
,,,-3.15450000e-008,-5.49999909e-004
,,,-3.15400000e-008,-5.74999910e-004
,,,-3.15350000e-008,-5.81249911e-004
,,,-3.15300000e-008,-5.62499909e-004
,,,-3.15250000e-008,-5.81249911e-004
,,,-3.15200000e-008,-5.93749912e-004
,,,-3.15150000e-008,-5.87499911e-004
,,,-3.15100000e-008,-6.18749913e-004
,,,-3.15050000e-008,-6.12499913e-004
,,,-3.15000000e-008,-6.18749913e-004
,,,-3.14950000e-008,-6.31249914e-004
,,,-3.14900000e-008,-6.31249914e-004
,,,-3.14850000e-008,-6.49999916e-004
,,,-3.14800000e-008,-6.43749915e-004
,,,-3.14750000e-008,-6.68749917e-004
,,,-3.14700000e-008,-6.68749917e-004
,,,-3.14650000e-008,-6.99999919e-004
,,,-3.14600000e-008,-6.99999919e-004
,,,-3.14550000e-008,-6.87499918e-004
,,,-3.14500000e-008,-7.06249920e-004
,,,-3.14450000e-008,-7.12499920e-004
,,,-3.14400000e-008,-7.18749920e-004
,,,-3.14350000e-008,-6.99999919e-004
,,,-3.14300000e-008,-7.18749920e-004
,,,-3.14250000e-008,-7.18749920e-004
,,,-3.14200000e-008,-7.12499920e-004
,,,-3.14150000e-008,-6.93749919e-004
,,,-3.14100000e-008,-6.93749919e-004
,,,-3.14050000e-008,-6.99999919e-004
,,,-3.14000000e-008,-6.87499918e-004
,,,-3.13950000e-008,-6.93749919e-004
,,,-3.13900000e-008,-6.87499918e-004
,,,-3.13850000e-008,-6.87499918e-004
,,,-3.13800000e-008,-6.87499918e-004
,,,-3.13750000e-008,-6.56249916e-004
,,,-3.13700000e-008,-6.62499917e-004
,,,-3.13650000e-008,-6.49999916e-004
,,,-3.13600000e-008,-6.37499915e-004
,,,-3.13550000e-008,-6.37499915e-004
,,,-3.13500000e-008,-6.37499915e-004
,,,-3.13450000e-008,-6.24999914e-004
,,,-3.13400000e-008,-6.12499913e-004
,,,-3.13350000e-008,-6.12499913e-004
,,,-3.13300000e-008,-6.06249913e-004
,,,-3.13250000e-008,-5.93749912e-004
,,,-3.13200000e-008,-5.99999912e-004
,,,-3.13150000e-008,-5.87499911e-004
,,,-3.13100000e-008,-5.93749912e-004
,,,-3.13050000e-008,-5.93749912e-004
,,,-3.13000000e-008,-5.99999912e-004
,,,-3.12950000e-008,-5.87499911e-004
,,,-3.12900000e-008,-5.81249911e-004
,,,-3.12850000e-008,-5.81249911e-004
,,,-3.12800000e-008,-5.81249911e-004
,,,-3.12750000e-008,-5.93749912e-004
,,,-3.12700000e-008,-5.81249911e-004
,,,-3.12650000e-008,-5.81249911e-004
,,,-3.12600000e-008,-5.93749912e-004
,,,-3.12550000e-008,-5.93749912e-004
,,,-3.12500000e-008,-5.93749912e-004
,,,-3.12450000e-008,-6.18749913e-004
,,,-3.12400000e-008,-5.93749912e-004
,,,-3.12350000e-008,-5.99999912e-004
,,,-3.12300000e-008,-6.06249913e-004
,,,-3.12250000e-008,-6.06249913e-004
,,,-3.12200000e-008,-6.18749913e-004
,,,-3.12150000e-008,-6.06249913e-004
,,,-3.12100000e-008,-6.24999914e-004
,,,-3.12050000e-008,-6.24999914e-004
,,,-3.12000000e-008,-6.18749913e-004
,,,-3.11950000e-008,-6.18749913e-004
,,,-3.11900000e-008,-6.37499915e-004
,,,-3.11850000e-008,-6.18749913e-004
,,,-3.11800000e-008,-6.12499913e-004
,,,-3.11750000e-008,-6.43749915e-004
,,,-3.11700000e-008,-6.37499915e-004
,,,-3.11650000e-008,-6.12499913e-004
,,,-3.11600000e-008,-6.12499913e-004
,,,-3.11550000e-008,-6.18749913e-004
,,,-3.11500000e-008,-5.99999912e-004
,,,-3.11450000e-008,-6.06249913e-004
,,,-3.11400000e-008,-6.18749913e-004
,,,-3.11350000e-008,-6.12499913e-004
,,,-3.11300000e-008,-5.87499911e-004
,,,-3.11250000e-008,-5.93749912e-004
,,,-3.11200000e-008,-5.74999910e-004
,,,-3.11150000e-008,-5.74999910e-004
,,,-3.11100000e-008,-5.74999910e-004
,,,-3.11050000e-008,-5.56249909e-004
,,,-3.11000000e-008,-5.43749908e-004
,,,-3.10950000e-008,-5.49999909e-004
,,,-3.10900000e-008,-5.37499908e-004
,,,-3.10850000e-008,-5.49999909e-004
,,,-3.10800000e-008,-5.37499908e-004
,,,-3.10750000e-008,-5.31249907e-004
,,,-3.10700000e-008,-5.12499906e-004
,,,-3.10650000e-008,-5.12499906e-004
,,,-3.10600000e-008,-5.24999907e-004
,,,-3.10550000e-008,-5.18749906e-004
,,,-3.10500000e-008,-5.18749906e-004
,,,-3.10450000e-008,-5.24999907e-004
,,,-3.10400000e-008,-5.12499906e-004
,,,-3.10350000e-008,-5.31249907e-004
,,,-3.10300000e-008,-5.31249907e-004
,,,-3.10250000e-008,-5.24999907e-004
,,,-3.10200000e-008,-5.24999907e-004
,,,-3.10150000e-008,-5.43749908e-004
,,,-3.10100000e-008,-5.49999909e-004
,,,-3.10050000e-008,-5.43749908e-004
,,,-3.10000000e-008,-5.62499909e-004
,,,-3.09950000e-008,-5.56249909e-004
,,,-3.09900000e-008,-5.74999910e-004
,,,-3.09850000e-008,-5.62499909e-004
,,,-3.09800000e-008,-5.62499909e-004
,,,-3.09750000e-008,-5.81249911e-004
,,,-3.09700000e-008,-5.87499911e-004
,,,-3.09650000e-008,-5.74999910e-004
,,,-3.09600000e-008,-5.87499911e-004
,,,-3.09550000e-008,-5.93749912e-004
,,,-3.09500000e-008,-5.99999912e-004
,,,-3.09450000e-008,-6.12499913e-004
,,,-3.09400000e-008,-6.18749913e-004
,,,-3.09350000e-008,-6.12499913e-004
,,,-3.09300000e-008,-6.12499913e-004
,,,-3.09250000e-008,-5.99999912e-004
,,,-3.09200000e-008,-6.12499913e-004
,,,-3.09150000e-008,-6.12499913e-004
,,,-3.09100000e-008,-6.06249913e-004
,,,-3.09050000e-008,-6.06249913e-004
,,,-3.09000000e-008,-6.18749913e-004
,,,-3.08950000e-008,-6.31249914e-004
,,,-3.08900000e-008,-6.37499915e-004
,,,-3.08850000e-008,-6.31249914e-004
,,,-3.08800000e-008,-6.18749913e-004
,,,-3.08750000e-008,-6.31249914e-004
,,,-3.08700000e-008,-6.12499913e-004
,,,-3.08650000e-008,-6.06249913e-004
,,,-3.08600000e-008,-6.18749913e-004
,,,-3.08550000e-008,-6.18749913e-004
,,,-3.08500000e-008,-6.06249913e-004
,,,-3.08450000e-008,-5.99999912e-004
,,,-3.08400000e-008,-6.18749913e-004
,,,-3.08350000e-008,-6.12499913e-004
,,,-3.08300000e-008,-6.24999914e-004
,,,-3.08250000e-008,-6.37499915e-004
,,,-3.08200000e-008,-6.24999914e-004
,,,-3.08150000e-008,-6.12499913e-004
,,,-3.08100000e-008,-6.18749913e-004
,,,-3.08050000e-008,-6.12499913e-004
,,,-3.08000000e-008,-6.12499913e-004
,,,-3.07950000e-008,-6.24999914e-004
,,,-3.07900000e-008,-6.24999914e-004
,,,-3.07850000e-008,-6.31249914e-004
,,,-3.07800000e-008,-6.18749913e-004
,,,-3.07750000e-008,-6.37499915e-004
,,,-3.07700000e-008,-6.31249914e-004
,,,-3.07650000e-008,-6.12499913e-004
,,,-3.07600000e-008,-6.18749913e-004
,,,-3.07550000e-008,-6.18749913e-004
,,,-3.07500000e-008,-6.24999914e-004
,,,-3.07450000e-008,-6.18749913e-004
,,,-3.07400000e-008,-6.18749913e-004
,,,-3.07350000e-008,-6.24999914e-004
,,,-3.07300000e-008,-6.18749913e-004
,,,-3.07250000e-008,-6.12499913e-004
,,,-3.07200000e-008,-6.18749913e-004
,,,-3.07150000e-008,-5.99999912e-004
,,,-3.07100000e-008,-5.81249911e-004
,,,-3.07050000e-008,-5.87499911e-004
,,,-3.07000000e-008,-6.06249913e-004
,,,-3.06950000e-008,-5.87499911e-004
,,,-3.06900000e-008,-5.81249911e-004
,,,-3.06850000e-008,-5.87499911e-004
,,,-3.06800000e-008,-5.87499911e-004
,,,-3.06750000e-008,-5.74999910e-004
,,,-3.06700000e-008,-5.62499909e-004
,,,-3.06650000e-008,-5.62499909e-004
,,,-3.06600000e-008,-5.62499909e-004
,,,-3.06550000e-008,-5.56249909e-004
,,,-3.06500000e-008,-5.43749908e-004
,,,-3.06450000e-008,-5.37499908e-004
,,,-3.06400000e-008,-5.31249907e-004
,,,-3.06350000e-008,-5.49999909e-004
,,,-3.06300000e-008,-5.37499908e-004
,,,-3.06250000e-008,-5.24999907e-004
,,,-3.06200000e-008,-5.31249907e-004
,,,-3.06150000e-008,-5.37499908e-004
,,,-3.06100000e-008,-5.12499906e-004
,,,-3.06050000e-008,-5.12499906e-004
,,,-3.06000000e-008,-5.31249907e-004
,,,-3.05950000e-008,-5.12499906e-004
,,,-3.05900000e-008,-5.18749906e-004
,,,-3.05850000e-008,-5.18749906e-004
,,,-3.05800000e-008,-5.12499906e-004
,,,-3.05750000e-008,-5.18749906e-004
,,,-3.05700000e-008,-5.18749906e-004
,,,-3.05650000e-008,-5.24999907e-004
,,,-3.05600000e-008,-5.24999907e-004
,,,-3.05550000e-008,-5.24999907e-004
,,,-3.05500000e-008,-5.18749906e-004
,,,-3.05450000e-008,-5.37499908e-004
,,,-3.05400000e-008,-5.31249907e-004
,,,-3.05350000e-008,-5.37499908e-004
,,,-3.05300000e-008,-5.49999909e-004
,,,-3.05250000e-008,-5.43749908e-004
,,,-3.05200000e-008,-5.56249909e-004
,,,-3.05150000e-008,-5.43749908e-004
,,,-3.05100000e-008,-5.49999909e-004
,,,-3.05050000e-008,-5.43749908e-004
,,,-3.05000000e-008,-5.49999909e-004
,,,-3.04950000e-008,-5.56249909e-004
,,,-3.04900000e-008,-5.56249909e-004
,,,-3.04850000e-008,-5.43749908e-004
,,,-3.04800000e-008,-5.62499909e-004
,,,-3.04750000e-008,-5.62499909e-004
,,,-3.04700000e-008,-5.68749910e-004
,,,-3.04650000e-008,-5.87499911e-004
,,,-3.04600000e-008,-5.81249911e-004
,,,-3.04550000e-008,-5.74999910e-004
,,,-3.04500000e-008,-5.99999912e-004
,,,-3.04450000e-008,-5.87499911e-004
,,,-3.04400000e-008,-5.81249911e-004
,,,-3.04350000e-008,-6.06249913e-004
,,,-3.04300000e-008,-6.06249913e-004
,,,-3.04250000e-008,-5.93749912e-004
,,,-3.04200000e-008,-5.93749912e-004
,,,-3.04150000e-008,-5.99999912e-004
,,,-3.04100000e-008,-5.93749912e-004
,,,-3.04050000e-008,-5.93749912e-004
,,,-3.04000000e-008,-5.81249911e-004
,,,-3.03950000e-008,-5.74999910e-004
,,,-3.03900000e-008,-5.81249911e-004
,,,-3.03850000e-008,-5.99999912e-004
,,,-3.03800000e-008,-5.87499911e-004
,,,-3.03750000e-008,-5.74999910e-004
,,,-3.03700000e-008,-5.81249911e-004
,,,-3.03650000e-008,-5.87499911e-004
,,,-3.03600000e-008,-5.87499911e-004
,,,-3.03550000e-008,-5.93749912e-004
,,,-3.03500000e-008,-5.99999912e-004
,,,-3.03450000e-008,-5.93749912e-004
,,,-3.03400000e-008,-5.93749912e-004
,,,-3.03350000e-008,-5.87499911e-004
,,,-3.03300000e-008,-5.93749912e-004
,,,-3.03250000e-008,-5.81249911e-004
,,,-3.03200000e-008,-5.93749912e-004
,,,-3.03150000e-008,-5.99999912e-004
,,,-3.03100000e-008,-6.12499913e-004
,,,-3.03050000e-008,-6.12499913e-004
,,,-3.03000000e-008,-6.06249913e-004
,,,-3.02950000e-008,-6.06249913e-004
,,,-3.02900000e-008,-6.24999914e-004
,,,-3.02850000e-008,-6.18749913e-004
,,,-3.02800000e-008,-6.18749913e-004
,,,-3.02750000e-008,-6.18749913e-004
